<svg xmlns="http://www.w3.org/2000/svg" width="24" height="24" viewBox="0 0 24 24">
    <path fill="#BB1BD9" fill-rule="evenodd" d="M12.419 15.723a.986.986 0 0 1-.98-.927l-3.46-4.344 4.44 3.293c.54 0 .98.442.98.987 0 .546-.44.991-.98.991zm-5.314 2.918h9.787v2.343H7.105V18.64zM20.483 6.558a12.075 12.075 0 0 1 3.514 8.557c0 2.088-.521 4.093-1.5 5.869h-2.243l-1.64-.956.724-1.265 2.11 1.228a10.714 10.714 0 0 0 1.126-5.798l-2.515.448-.252-1.44 2.545-.452a10.728 10.728 0 0 0-2.896-5.245l-1.724 2.073-1.11-.94L18.36 6.55a10.504 10.504 0 0 0-5.637-2.116v2.772h-1.449V4.434A10.502 10.502 0 0 0 5.637 6.55l1.737 2.087-1.11.94-1.723-2.072a10.727 10.727 0 0 0-2.896 5.244l2.545.453-.252 1.439-2.515-.447a10.716 10.716 0 0 0 1.126 5.798l2.11-1.23.724 1.266-1.64.956H1.5A12.114 12.114 0 0 1 0 15.115c0-3.232 1.248-6.271 3.514-8.557A11.869 11.869 0 0 1 12 3.013c3.204 0 6.218 1.26 8.484 3.545z"/>
</svg>
