<svg xmlns="http://www.w3.org/2000/svg" width="18" height="18" viewBox="0 0 18 18">
    <g fill="none" fill-rule="evenodd">
        <path fill="#003E5A" d="M15.533 7.902l.253 2.684a1.064 1.064 0 0 0 .95-1.163c-.16-1.693-.158-2.193-.49-3.036A2.209 2.209 0 0 0 13.9 4.992a4.093 4.093 0 0 1 1.634 2.91zM15.697 12.464c-3.884 1.781-9.512 1.78-13.394 0C1.225 11.969 0 12.76 0 13.959c0 .654.382 1.246.973 1.507 4.635 2.046 11.425 2.044 16.054 0 .59-.261.973-.853.973-1.507 0-1.197-1.224-1.99-2.303-1.495zM9 5.267h2.11v2.667H9z"/>
        <path fill="#D91B5B" d="M1.617 2.067h.712l-.917 2.442C.888 5.904 1.908 7.4 3.383 7.4h.282l-.471 4.288c.99.402 2.113.695 3.3.867l.212-1.014c1.409.88 3.188.879 4.596-.005l.224 1.016c1.189-.173 2.312-.469 3.303-.873l-.346-3.676a3.01 3.01 0 0 0-2.319-2.662v3.126a.53.53 0 0 1-.527.533H8.473a.53.53 0 0 1-.528-.533v-4.8C7.945 2.197 6.762 1 5.31 1H1.617a.53.53 0 0 0-.527.534.53.53 0 0 0 .527.533zm3.164 1.067a.53.53 0 0 1 .528.533.53.53 0 0 1-.528.533.53.53 0 0 1-.527-.533.53.53 0 0 1 .527-.533z"/>
    </g>
</svg>
