<svg xmlns="http://www.w3.org/2000/svg" width="18" height="18" viewBox="0 0 18 18">
    <g fill="none" fill-rule="evenodd">
        <path fill="#003E5A" d="M4.493 2.752h-3.37C.503 2.752 0 3.256 0 3.876V16.23c0 .62.502 1.123 1.123 1.123h3.37c.62 0 1.123-.503 1.123-1.123V3.876c0-.62-.502-1.124-1.123-1.124zM1.685 13.984a.561.561 0 1 1 0-1.122.561.561 0 0 1 0 1.122zm2.808-6.739h-3.37V6.122h3.37v1.123zm0-2.246h-3.37V3.876h3.37v1.123zM11.793 15.107v-1.123h-3.37v1.123c-.62 0-1.122.503-1.122 1.124h5.615c0-.621-.502-1.124-1.123-1.124z"/>
        <path fill="#D91B5B" d="M16.848.506H3.37c-.621 0-1.124.503-1.124 1.123h14.602v8.986H6.739v2.246h10.109c.62 0 1.123-.502 1.123-1.123V1.629c0-.62-.503-1.123-1.123-1.123zm-6.74 11.793a.561.561 0 1 1 0-1.122.561.561 0 0 1 0 1.122z"/>
    </g>
</svg>
